{
  "page": 1,
  "per_page": 1,
  "photos": [
    {
      "id": 6590699,
      "width": 3264,
      "height": 4912,
      "url": "https://www.pexels.com/photo/tall-majestic-palm-trees-on-green-hills-6590699/",
      "photographer": "Alexis Ricardo Alaurin",
      "photographer_url": "https://www.pexels.com/@alexisricardoalaurin",
      "photographer_id": 1507405,
      "avg_color": "#A39A86",
      "src": {
        "original": "https://images.pexels.com/photos/6590699/pexels-photo-6590699.jpeg",
        "large2x": "https://images.pexels.com/photos/6590699/pexels-photo-6590699.jpeg?auto=compress\u0026cs=tinysrgb\u0026dpr=2\u0026h=650\u0026w=940",
        "large": "https://images.pexels.com/photos/6590699/pexels-photo-6590699.jpeg?auto=compress\u0026cs=tinysrgb\u0026h=650\u0026w=940",
        "medium": "https://images.pexels.com/photos/6590699/pexels-photo-6590699.jpeg?auto=compress\u0026cs=tinysrgb\u0026h=350",
        "small": "https://images.pexels.com/photos/6590699/pexels-photo-6590699.jpeg?auto=compress\u0026cs=tinysrgb\u0026h=130",
        "portrait": "https://images.pexels.com/photos/6590699/pexels-photo-6590699.jpeg?auto=compress\u0026cs=tinysrgb\u0026fit=crop\u0026h=1200\u0026w=800",
        "landscape": "https://images.pexels.com/photos/6590699/pexels-photo-6590699.jpeg?auto=compress\u0026cs=tinysrgb\u0026fit=crop\u0026h=627\u0026w=1200",
        "tiny": "https://images.pexels.com/photos/6590699/pexels-photo-6590699.jpeg?auto=compress\u0026cs=tinysrgb\u0026dpr=1\u0026fit=crop\u0026h=200\u0026w=280"
      },
      "liked": false,
      "alt": "Tall majestic palm trees on green hills"
    }
  ],
  "total_results": 8000,
  "next_page": "https://api.pexels.com/v1/search/?page=2\u0026per_page=1\u0026query=nature"
}
